Statistique en grande dimension - 5 Rappels sur le \(k\)-means et la CAH
…
On passe à plus de groupes

nom <- paste("K=",5:9,sep="")
mat <- matrix(0,ncol=5,nrow=nrow(tbl))
k <- 5:9
for (j in 1:5){
  res <- kmeans(tbl,centers = k[j],nstart = 100)
  mat[,j] <- res$cluster
}
mat1 <- as_tibble(mat)
names(mat1) <- nom
(tbl2 <- tbl1 |> bind_cols(mat1))

# A tibble: 2,800 × 8
      V1     V2 `K=4` `K=5` `K=6` `K=7` `K=8` `K=9`
   <dbl>  <dbl> <int> <dbl> <dbl> <dbl> <dbl> <dbl>
 1  6.00 0.0315     3     3     1     6     5     4
 2  6.00 0.0632     3     3     1     6     5     4
 3  6.00 0.0950     3     3     1     6     5     4
 4  6.00 0.127      3     3     1     6     5     4
 5  6.00 0.159      3     3     1     6     5     4
 6  6.00 0.191      3     3     1     6     5     4
 7  6.00 0.223      3     3     1     6     5     4
 8  5.99 0.255      3     2     1     6     5     4
 9  5.99 0.287      3     2     1     6     5     4
10  5.98 0.318      3     2     1     6     5     4
# … with 2,790 more rows
…
